X,Y,Z,R,P,Yaw
0.061,0.1306,0.3072,0.0007,-0.0,0.0
0.061,0.1606,0.3072,0.0004,0.0,0.0
0.061,0.1604,0.3149,0.0009,-0.0,0.0
0.061,0.1606,0.3272,0.0001,-0.0,0.0
0.061,0.1306,0.3272,-0.0002,0.0,0.0
0.061,0.1305,0.3191,0.0003,0.0,0.0
0.061,0.1306,0.3072,0.0,-0.0,0.0
0.061,0.1306,0.3074,0.0007,-0.0,0.0
0.061,0.131,0.308,0.0028,0.0,0.0
0.061,0.1317,0.3087,0.0056,0.0,-0.0
0.061,0.1335,0.3095,0.0086,0.0,-0.0
0.061,0.1347,0.3097,0.0093,0.0,-0.0
0.061,0.1367,0.3097,0.0091,0.0,-0.0
0.061,0.1389,0.3094,0.008,0.0,-0.0
0.061,0.1405,0.3093,0.0075,0.0,-0.0
0.061,0.1423,0.3095,0.0077,0.0,-0.0
0.061,0.1453,0.3093,0.0065,0.0,-0.0
0.061,0.1473,0.3091,0.0054,0.0,-0.0
0.061,0.1493,0.3086,0.004,-0.0,-0.0
0.061,0.1511,0.3079,0.002,0.0,-0.0
0.061,0.1529,0.3072,-0.0001,-0.0,-0.0
0.061,0.1545,0.3066,-0.0019,-0.0,-0.0
0.061,0.1566,0.3059,-0.004,-0.0,-0.0
0.061,0.1585,0.3054,-0.0055,-0.0,-0.0
0.061,0.16,0.305,-0.0067,-0.0,0.0
0.061,0.1611,0.3046,-0.0077,-0.0,0.0
0.061,0.1619,0.3042,-0.0088,-0.0,0.0
0.061,0.1623,0.3039,-0.0097,-0.0,0.0
0.061,0.1623,0.3039,-0.0099,0.0,0.0
0.061,0.1621,0.3043,-0.0085,-0.0,0.0
0.061,0.1618,0.3049,-0.0067,-0.0,0.0
0.061,0.1615,0.3056,-0.0048,-0.0,0.0
0.061,0.1612,0.3061,-0.0031,-0.0,0.0
0.061,0.161,0.3064,-0.0021,0.0,0.0
0.061,0.1608,0.3069,-0.0006,-0.0,0.0
0.061,0.1607,0.3072,0.0001,-0.0,0.0
0.061,0.1606,0.3073,0.0004,0.0,0.0
0.061,0.1606,0.3073,0.0006,0.0,0.0
0.061,0.1605,0.3074,0.0008,0.0,0.0
0.061,0.1605,0.3074,0.0009,0.0,0.0
0.061,0.1605,0.3074,0.0008,0.0,0.0
0.061,0.1606,0.3074,0.0007,0.0,0.0
0.061,0.1606,0.3073,0.0006,0.0,0.0
0.061,0.1606,0.3073,0.0005,0.0,0.0
0.061,0.1606,0.3073,0.0005,0.0,0.0
0.061,0.1606,0.3073,0.0004,-0.0,0.0
0.061,0.1606,0.3072,0.0004,0.0,0.0
0.061,0.1606,0.3072,0.0003,0.0,0.0
0.061,0.1606,0.3072,0.0003,-0.0,0.0
0.061,0.1606,0.3072,0.0003,0.0,0.0
0.061,0.1606,0.3072,0.0003,0.0,0.0
0.061,0.1606,0.3072,0.0003,-0.0,0.0
0.061,0.1606,0.3072,0.0003,0.0,0.0
0.061,0.1606,0.3072,0.0003,0.0,0.0
0.061,0.1606,0.3072,0.0003,0.0,0.0
0.061,0.1606,0.3072,0.0003,0.0,0.0
0.061,0.1606,0.3072,0.0003,0.0,0.0
0.061,0.1606,0.3072,0.0003,-0.0,0.0
0.061,0.1606,0.3072,0.0003,-0.0,0.0
0.061,0.1606,0.3072,0.0003,0.0,0.0
0.061,0.1606,0.3072,0.0003,0.0,0.0
0.061,0.1606,0.3072,0.0003,0.0,0.0
0.061,0.1606,0.3072,0.0003,0.0,0.0
0.061,0.1606,0.3072,0.0003,0.0,0.0
0.061,0.1606,0.3072,0.0003,0.0,0.0
0.061,0.1606,0.3072,0.0003,0.0,0.0
0.061,0.1606,0.3072,0.0003,-0.0,0.0
0.061,0.1606,0.3072,0.0003,-0.0,0.0
0.061,0.1606,0.3072,0.0003,0.0,0.0
0.061,0.1606,0.3072,0.0003,-0.0,0.0
0.061,0.1606,0.3073,0.0002,-0.0,0.0
0.061,0.1606,0.3077,0.0001,0.0,0.0
0.061,0.1606,0.3088,-0.0002,0.0,0.0
0.061,0.1607,0.3105,-0.0003,0.0,0.0
0.061,0.1607,0.3117,-0.0003,-0.0,0.0
0.061,0.1607,0.313,-0.0002,-0.0,0.0
0.061,0.1606,0.3154,-0.0,-0.0,0.0
0.061,0.1606,0.319,0.0002,-0.0,0.0
0.061,0.1605,0.3214,0.0006,-0.0,0.0
0.061,0.1605,0.3233,0.0007,-0.0,0.0
0.061,0.1604,0.3249,0.0009,-0.0,0.0
0.061,0.1604,0.3258,0.0009,0.0,0.0
0.061,0.1605,0.3269,0.0008,0.0,0.0
0.061,0.1605,0.3273,0.0005,0.0,0.0
0.061,0.1606,0.3272,0.0,-0.0,0.0
0.061,0.1607,0.3272,-0.0001,0.0,0.0
0.061,0.1607,0.3271,-0.0002,-0.0,0.0
0.061,0.1607,0.3271,-0.0003,-0.0,0.0
0.061,0.1607,0.3271,-0.0002,-0.0,0.0
0.061,0.1607,0.3271,-0.0002,-0.0,0.0
0.061,0.1607,0.3272,-0.0002,-0.0,0.0
0.061,0.1606,0.3272,-0.0001,0.0,0.0
0.061,0.1606,0.3272,-0.0001,-0.0,0.0
0.061,0.1606,0.3272,-0.0,-0.0,0.0
0.061,0.1606,0.3272,0.0,-0.0,0.0
0.061,0.1606,0.3272,0.0,0.0,0.0
0.061,0.1606,0.3272,0.0001,-0.0,0.0
0.061,0.1606,0.3272,0.0001,-0.0,0.0
0.061,0.1606,0.3272,0.0001,-0.0,0.0
0.061,0.1606,0.3272,0.0001,0.0,0.0
0.061,0.1606,0.3272,0.0001,-0.0,0.0
0.061,0.1606,0.3272,0.0001,0.0,0.0
0.061,0.1606,0.3272,0.0001,0.0,0.0
0.061,0.1606,0.3272,0.0001,0.0,0.0
0.061,0.1606,0.3272,0.0001,-0.0,0.0
0.061,0.1606,0.3272,0.0001,-0.0,0.0
0.061,0.1606,0.3272,0.0001,-0.0,0.0
0.061,0.1606,0.3272,0.0001,-0.0,0.0
0.061,0.1606,0.3272,0.0001,-0.0,0.0
0.061,0.1606,0.3272,0.0001,-0.0,0.0
0.061,0.1606,0.3272,0.0001,-0.0,0.0
0.061,0.1606,0.3272,0.0001,-0.0,0.0
0.061,0.1606,0.3272,0.0001,0.0,0.0
0.061,0.1606,0.3272,0.0001,0.0,0.0
0.061,0.1606,0.3272,0.0001,0.0,0.0
0.061,0.1606,0.3272,0.0001,-0.0,0.0
0.061,0.1606,0.3272,0.0001,-0.0,0.0
0.061,0.1606,0.3272,0.0001,-0.0,0.0
0.061,0.1606,0.3272,0.0001,-0.0,0.0
0.061,0.1606,0.3272,0.0001,-0.0,0.0
0.061,0.1606,0.3272,0.0001,-0.0,0.0
0.061,0.1606,0.3272,0.0001,-0.0,0.0
0.061,0.1606,0.3272,0.0001,0.0,0.0
0.061,0.1606,0.3272,0.0001,0.0,0.0
0.061,0.1606,0.3272,0.0001,0.0,0.0
0.061,0.1606,0.3272,0.0001,-0.0,0.0
0.061,0.1606,0.3272,0.0001,-0.0,0.0
0.061,0.1606,0.3272,0.0,-0.0,0.0
0.061,0.1606,0.3272,0.0,-0.0,0.0
0.061,0.1606,0.3269,-0.0008,-0.0,0.0
0.061,0.1604,0.3263,-0.0026,-0.0,0.0
0.061,0.1598,0.3256,-0.0049,-0.0,0.0
0.061,0.1592,0.3252,-0.0063,0.0,0.0
0.061,0.158,0.3248,-0.0075,0.0,0.0
0.061,0.1564,0.3248,-0.0077,0.0,0.0
0.061,0.1546,0.325,-0.0072,0.0,0.0
0.061,0.1532,0.325,-0.0072,0.0,0.0
0.061,0.1499,0.3243,-0.0097,0.0,0.0
0.061,0.147,0.3246,-0.0091,0.0,0.0
0.061,0.1441,0.3249,-0.0082,0.0,0.0
0.061,0.1411,0.3252,-0.0073,0.0,0.0
0.061,0.1382,0.3263,-0.0034,0.0,0.0
0.061,0.1356,0.3275,0.0007,0.0,0.0
0.061,0.1341,0.328,0.0028,0.0,0.0
0.061,0.1322,0.3286,0.0049,0.0,0.0
0.061,0.1312,0.3289,0.0059,0.0,0.0
0.061,0.1295,0.3294,0.0076,0.0,0.0
0.061,0.1289,0.3296,0.0086,0.0,0.0
0.061,0.1284,0.33,0.0099,0.0,-0.0
0.061,0.1284,0.33,0.0102,0.0,-0.0
0.061,0.1286,0.3297,0.0091,0.0,-0.0
0.061,0.1289,0.3294,0.008,0.0,-0.0
0.061,0.1291,0.3291,0.0067,0.0,-0.0
0.061,0.1296,0.3286,0.0048,0.0,-0.0
0.061,0.1299,0.3281,0.0031,0.0,-0.0
0.061,0.1302,0.3277,0.0017,0.0,-0.0
0.061,0.1303,0.3276,0.001,0.0,-0.0
0.061,0.1305,0.3273,0.0002,0.0,-0.0
0.061,0.1306,0.3272,-0.0003,0.0,-0.0
0.061,0.1307,0.3272,-0.0005,0.0,-0.0
0.061,0.1307,0.3271,-0.0006,0.0,-0.0
0.061,0.1307,0.3271,-0.0006,0.0,-0.0
0.061,0.1307,0.3272,-0.0005,0.0,-0.0
0.061,0.1306,0.3272,-0.0004,0.0,-0.0
0.061,0.1306,0.3272,-0.0003,0.0,-0.0
0.061,0.1306,0.3272,-0.0002,0.0,0.0
0.061,0.1306,0.3273,-0.0001,0.0,0.0
0.061,0.1306,0.3273,-0.0001,0.0,0.0
0.061,0.1306,0.3273,-0.0001,0.0,0.0
0.061,0.1306,0.3273,-0.0001,0.0,0.0
0.061,0.1306,0.3273,-0.0,0.0,0.0
0.061,0.1306,0.3273,-0.0,0.0,0.0
0.061,0.1306,0.3273,-0.0,0.0,0.0
0.061,0.1306,0.3273,-0.0001,0.0,0.0
0.061,0.1306,0.3273,-0.0001,0.0,0.0
0.061,0.1306,0.3273,-0.0001,0.0,0.0
0.061,0.1306,0.3273,-0.0001,0.0,0.0
0.061,0.1306,0.3273,-0.0001,0.0,0.0
0.061,0.1306,0.3273,-0.0001,0.0,0.0
0.061,0.1306,0.3273,-0.0001,0.0,0.0
0.061,0.1306,0.3273,-0.0001,0.0,0.0
0.061,0.1306,0.3273,-0.0001,0.0,0.0
0.061,0.1306,0.3273,-0.0001,0.0,0.0
0.061,0.1306,0.3273,-0.0001,0.0,0.0
0.061,0.1306,0.3273,-0.0001,0.0,0.0
0.061,0.1306,0.3273,-0.0001,0.0,0.0
0.061,0.1306,0.3273,-0.0001,0.0,0.0
0.061,0.1306,0.3273,-0.0001,0.0,0.0
0.061,0.1306,0.3273,-0.0001,0.0,0.0
0.061,0.1306,0.3273,-0.0002,0.0,0.0
0.061,0.1306,0.3272,-0.0002,0.0,0.0
0.061,0.1306,0.3271,-0.0001,0.0,0.0
0.061,0.1306,0.3264,-0.0002,0.0,0.0
0.061,0.1306,0.325,-0.0002,0.0,0.0
0.061,0.1306,0.3238,-0.0003,0.0,0.0
0.061,0.1306,0.322,-0.0001,0.0,0.0
0.061,0.1306,0.3207,0.0,0.0,0.0
0.061,0.1305,0.3191,0.0003,0.0,0.0
0.061,0.1305,0.3157,0.0007,-0.0,0.0
0.061,0.1304,0.314,0.0007,0.0,0.0
0.061,0.1304,0.3121,0.0007,0.0,0.0
0.061,0.1304,0.3098,0.0007,-0.0,0.0
0.061,0.1305,0.3085,0.0006,-0.0,0.0
0.061,0.1305,0.3076,0.0002,-0.0,0.0
0.061,0.1306,0.3072,-0.0003,-0.0,0.0
0.061,0.1307,0.3071,-0.0006,-0.0,0.0
0.061,0.1307,0.3071,-0.0007,-0.0,0.0
0.061,0.1307,0.3071,-0.0006,-0.0,0.0
0.061,0.1307,0.3071,-0.0005,-0.0,0.0
0.061,0.1306,0.3072,-0.0004,-0.0,0.0
0.061,0.1306,0.3072,-0.0003,-0.0,0.0
0.061,0.1306,0.3072,-0.0002,-0.0,0.0
0.061,0.1306,0.3072,-0.0001,0.0,0.0
0.061,0.1306,0.3072,-0.0001,0.0,0.0
0.061,0.1306,0.3073,-0.0,-0.0,0.0
0.061,0.1306,0.3073,0.0,-0.0,0.0
0.061,0.1306,0.3073,0.0,-0.0,0.0
0.061,0.1306,0.3073,0.0,-0.0,0.0
0.061,0.1306,0.3073,0.0,0.0,-0.0
0.061,0.1306,0.3073,0.0,-0.0,0.0
0.061,0.1306,0.3073,0.0,0.0,-0.0
0.061,0.1306,0.3073,0.0,-0.0,0.0
0.061,0.1306,0.3073,0.0,-0.0,0.0
0.061,0.1306,0.3073,0.0,0.0,-0.0
0.061,0.1306,0.3073,0.0,0.0,-0.0
0.061,0.1306,0.3073,0.0,-0.0,0.0
0.061,0.1306,0.3073,0.0,-0.0,0.0
0.061,0.1306,0.3073,0.0,-0.0,0.0
0.061,0.1306,0.3073,0.0,-0.0,0.0
0.061,0.1306,0.3073,0.0,-0.0,0.0
0.061,0.1306,0.3073,0.0,-0.0,0.0
0.061,0.1306,0.3073,0.0,-0.0,0.0
0.061,0.1306,0.3073,0.0,-0.0,0.0
0.061,0.1306,0.3073,0.0,-0.0,0.0
0.061,0.1306,0.3073,0.0,-0.0,0.0
0.061,0.1306,0.3073,0.0,0.0,-0.0
0.061,0.1306,0.3073,0.0,-0.0,0.0
0.061,0.1306,0.3073,0.0,-0.0,0.0
0.061,0.1306,0.3073,0.0,0.0,-0.0
0.061,0.1306,0.3073,0.0,-0.0,0.0
0.061,0.1306,0.3073,0.0,-0.0,0.0
0.061,0.1306,0.3073,0.0,-0.0,0.0
0.061,0.1306,0.3073,0.0,0.0,-0.0
0.061,0.1306,0.3073,0.0,0.0,0.0
0.061,0.1306,0.3073,0.0,-0.0,0.0
0.061,0.1306,0.3073,0.0,-0.0,0.0
0.061,0.1306,0.3073,0.0,-0.0,0.0
